5 Data transformation | r4ds学习笔记
…
第一个参数是一个数据框。

随后的参数使用变量名称（不带引号）描述了在数据框上进行的操作。

输出结果是一个新数据框。

这样的属性可以让我们在后面很方便地使用管道实现复杂的数据处理。

5.2 使用filter()筛选行

filter()的一般使用方法如下：

filter(flights,month == 1, day == 1)
#> # A tibble: 842 x 19
#>    year month   day dep_time sched_dep_time dep_delay arr_time sched_arr_time
#>   <int> <int> <int>    <int>          <int>     <dbl>    <int>          <int>
#> 1  2013     1     1      517            515         2      830            819
#> 2  2013     1     1      533            529         4      850            830
#> 3  2013     1     1      542            540         2      923            850
#> 4  2013     1     1      544            545        -1     1004           1022
#> 5  2013     1     1      554            600        -6      812            837
#> 6  2013     1     1      554            558        -4      740            728
#> # ... with 836 more rows, and 11 more variables: arr_delay <dbl>,
#> #   carrier <chr>, flight <int>, tailnum <chr>, origin <chr>, dest <chr>,
#> #   air_time <dbl>, distance <dbl>, hour <dbl>, minute <dbl>, time_hour <dttm>
…
比较运算符，>、>=、<、<=、!=（不等于）和 ==（等于）

逻辑运算符，&、|、！（而不是&&，||）

其他，像 %in%, between

5.2.1 练习

(1)找出满足以下条件的所有航班。

a.到达时间延误 2 小时或更多的航班。

filter(flights,arr_delay>=2*60)
#> # A tibble: 10,200 x 19
#>    year month   day dep_time sched_dep_time dep_delay arr_time sched_arr_time
#>   <int> <int> <int>    <int>          <int>     <dbl>    <int>          <int>
#> 1  2013     1     1      811            630       101     1047            830
#> 2  2013     1     1      848           1835       853     1001           1950
#> 3  2013     1     1      957            733       144     1056            853
#> 4  2013     1     1     1114            900       134     1447           1222
#> 5  2013     1     1     1505           1310       115     1638           1431
#> 6  2013     1     1     1525           1340       105     1831           1626
#> # ... with 10,194 more rows, and 11 more variables: arr_delay <dbl>,
#> #   carrier <chr>, flight <int>, tailnum <chr>, origin <chr>, dest <chr>,
#> #   air_time <dbl>, distance <dbl>, hour <dbl>, minute <dbl>, time_hour <dttm>

b.飞往休斯顿（IAH 机场或 HOU 机场）的航班。

filter(flights,dest %in% c("IAH","HOU"))
#> # A tibble: 9,313 x 19
#>    year month   day dep_time sched_dep_time dep_delay arr_time sched_arr_time
#>   <int> <int> <int>    <int>          <int>     <dbl>    <int>          <int>
#> 1  2013     1     1      517            515         2      830            819
#> 2  2013     1     1      533            529         4      850            830
#> 3  2013     1     1      623            627        -4      933            932
#> 4  2013     1     1      728            732        -4     1041           1038
#> 5  2013     1     1      739            739         0     1104           1038
#> 6  2013     1     1      908            908         0     1228           1219
#> # ... with 9,307 more rows, and 11 more variables: arr_delay <dbl>,
#> #   carrier <chr>, flight <int>, tailnum <chr>, origin <chr>, dest <chr>,
#> #   air_time <dbl>, distance <dbl>, hour <dbl>, minute <dbl>, time_hour <dttm>

c.由联合航空（United）、美利坚航空（American）或三角洲航空（Delta）运营的航班。

filter(flights,carrier %in% c("UA","AA","DL"))
#> # A tibble: 139,504 x 19
#>    year month   day dep_time sched_dep_time dep_delay arr_time sched_arr_time
#>   <int> <int> <int>    <int>          <int>     <dbl>    <int>          <int>
#> 1  2013     1     1      517            515         2      830            819
#> 2  2013     1     1      533            529         4      850            830
#> 3  2013     1     1      542            540         2      923            850
#> 4  2013     1     1      554            600        -6      812            837
#> 5  2013     1     1      554            558        -4      740            728
#> 6  2013     1     1      558            600        -2      753            745
#> # ... with 139,498 more rows, and 11 more variables: arr_delay <dbl>,
#> #   carrier <chr>, flight <int>, tailnum <chr>, origin <chr>, dest <chr>,
#> #   air_time <dbl>, distance <dbl>, hour <dbl>, minute <dbl>, time_hour <dttm>

d.夏季（7 月、8 月和 9 月）出发的航班。

filter(flights,month %in% c(7,8,9))
#> # A tibble: 86,326 x 19
#>    year month   day dep_time sched_dep_time dep_delay arr_time sched_arr_time
#>   <int> <int> <int>    <int>          <int>     <dbl>    <int>          <int>
#> 1  2013     7     1        1           2029       212      236           2359
#> 2  2013     7     1        2           2359         3      344            344
#> 3  2013     7     1       29           2245       104      151              1
#> 4  2013     7     1       43           2130       193      322             14
#> 5  2013     7     1       44           2150       174      300            100
#> 6  2013     7     1       46           2051       235      304           2358
#> # ... with 86,320 more rows, and 11 more variables: arr_delay <dbl>,
#> #   carrier <chr>, flight <int>, tailnum <chr>, origin <chr>, dest <chr>,
#> #   air_time <dbl>, distance <dbl>, hour <dbl>, minute <dbl>, time_hour <dttm>

e.到达时间延误超过 2 小时，但出发时间没有延误的航班。

filter(flights,arr_delay>=2*60,dep_delay<=0)
#> # A tibble: 29 x 19
#>    year month   day dep_time sched_dep_time dep_delay arr_time sched_arr_time
#>   <int> <int> <int>    <int>          <int>     <dbl>    <int>          <int>
#> 1  2013     1    27     1419           1420        -1     1754           1550
#> 2  2013    10     7     1350           1350         0     1736           1526
#> 3  2013    10     7     1357           1359        -2     1858           1654
#> 4  2013    10    16      657            700        -3     1258           1056
#> 5  2013    11     1      658            700        -2     1329           1015
#> 6  2013     3    18     1844           1847        -3       39           2219
#> # ... with 23 more rows, and 11 more variables: arr_delay <dbl>, carrier <chr>,
#> #   flight <int>, tailnum <chr>, origin <chr>, dest <chr>, air_time <dbl>,
#> #   distance <dbl>, hour <dbl>, minute <dbl>, time_hour <dttm>

f.延误至少 1 小时，但飞行过程弥补回 30 分钟的航班。

也就是，出发时间延误超1小时，但出发时间延误-到达时间延误>=30min

filter(flights,dep_delay>=1*60,dep_delay-arr_delay>=30)
#> # A tibble: 2,074 x 19
#>    year month   day dep_time sched_dep_time dep_delay arr_time sched_arr_time
#>   <int> <int> <int>    <int>          <int>     <dbl>    <int>          <int>
#> 1  2013     1     1     1716           1545        91     2140           2039
#> 2  2013     1     1     2205           1720       285       46           2040
#> 3  2013     1     1     2326           2130       116      131             18
#> 4  2013     1     3     1503           1221       162     1803           1555
#> 5  2013     1     3     1821           1530       171     2131           1910
#> 6  2013     1     3     1839           1700        99     2056           1950
#> # ... with 2,068 more rows, and 11 more variables: arr_delay <dbl>,
#> #   carrier <chr>, flight <int>, tailnum <chr>, origin <chr>, dest <chr>,
#> #   air_time <dbl>, distance <dbl>, hour <dbl>, minute <dbl>, time_hour <dttm>

g.出发时间在午夜和早上 6 点之间（包括 0 点和 6 点）的航班。

filter(flights,dep_time>=0&dep_time<=600)
#> # A tibble: 9,344 x 19
#>    year month   day dep_time sched_dep_time dep_delay arr_time sched_arr_time
#>   <int> <int> <int>    <int>          <int>     <dbl>    <int>          <int>
#> 1  2013     1     1      517            515         2      830            819
#> 2  2013     1     1      533            529         4      850            830
#> 3  2013     1     1      542            540         2      923            850
#> 4  2013     1     1      544            545        -1     1004           1022
#> 5  2013     1     1      554            600        -6      812            837
#> 6  2013     1     1      554            558        -4      740            728
#> # ... with 9,338 more rows, and 11 more variables: arr_delay <dbl>,
#> #   carrier <chr>, flight <int>, tailnum <chr>, origin <chr>, dest <chr>,
#> #   air_time <dbl>, distance <dbl>, hour <dbl>, minute <dbl>, time_hour <dttm>

(2)dplyr中对筛选有帮助的另一个函数是between()。它的作用是什么？你能使用这个函数来简化解决前面问题的代码吗？

用于实现letf<=x<=right的表达式。上面的g也可以写成

filter(flights,between(dep_time,0,600))
#> # A tibble: 9,344 x 19
#>    year month   day dep_time sched_dep_time dep_delay arr_time sched_arr_time
#>   <int> <int> <int>    <int>          <int>     <dbl>    <int>          <int>
#> 1  2013     1     1      517            515         2      830            819
#> 2  2013     1     1      533            529         4      850            830
#> 3  2013     1     1      542            540         2      923            850
#> 4  2013     1     1      544            545        -1     1004           1022
#> 5  2013     1     1      554            600        -6      812            837
#> 6  2013     1     1      554            558        -4      740            728
#> # ... with 9,338 more rows, and 11 more variables: arr_delay <dbl>,
#> #   carrier <chr>, flight <int>, tailnum <chr>, origin <chr>, dest <chr>,
#> #   air_time <dbl>, distance <dbl>, hour <dbl>, minute <dbl>, time_hour <dttm>

(3)dep_time 有缺失值的航班有多少？其他变量的缺失值情况如何？这样的行表示什么情况？

filter(flights,is.na(dep_time))
#> # A tibble: 8,255 x 19
#>    year month   day dep_time sched_dep_time dep_delay arr_time sched_arr_time
#>   <int> <int> <int>    <int>          <int>     <dbl>    <int>          <int>
#> 1  2013     1     1       NA           1630        NA       NA           1815
#> 2  2013     1     1       NA           1935        NA       NA           2240
#> 3  2013     1     1       NA           1500        NA       NA           1825
#> 4  2013     1     1       NA            600        NA       NA            901
#> 5  2013     1     2       NA           1540        NA       NA           1747
#> 6  2013     1     2       NA           1620        NA       NA           1746
#> # ... with 8,249 more rows, and 11 more variables: arr_delay <dbl>,
#> #   carrier <chr>, flight <int>, tailnum <chr>, origin <chr>, dest <chr>,
#> #   air_time <dbl>, distance <dbl>, hour <dbl>, minute <dbl>, time_hour <dttm>
…
(4)为什么 NA ^ 0 的值不是 NA ？为什么 NA | TRUE 的值不是 NA ？为什么 FALSE & NA 的值不是 NA ？你能找出一般规律吗？（NA * 0 则是精妙的反例！）

个人觉得，因为NA表示缺失值，所有有可能取到可取的任意值。

对于NA^0，NA*0等数学运算，NA可以取任意数值，对于NA所取任意值，如果表达式的值都唯一，那么这个就是该表达式的值，若不唯一，则应为NA。由于对于任意数值，它的0次幂都为1（包括Inf、-Inf），所以NA^0==1，而由于Inf*0=NaN，当NA取1时NA*0==0，不唯一，故NA * 0=NA。

对于NA | TRUE，FALSE & NA，NA可以取TRUE或者FALSE，无论取什么值，两个表达式的值都唯一（分别为TRUE，FALSE），故它们的值都不是NA。

5.3 使用arrange()排列行

工作方式：

arrange(flights,year,month,day)
#> # A tibble: 336,776 x 19
#>    year month   day dep_time sched_dep_time dep_delay arr_time sched_arr_time
#>   <int> <int> <int>    <int>          <int>     <dbl>    <int>          <int>
#> 1  2013     1     1      517            515         2      830            819
#> 2  2013     1     1      533            529         4      850            830
#> 3  2013     1     1      542            540         2      923            850
#> 4  2013     1     1      544            545        -1     1004           1022
#> 5  2013     1     1      554            600        -6      812            837
#> 6  2013     1     1      554            558        -4      740            728
#> # ... with 336,770 more rows, and 11 more variables: arr_delay <dbl>,
#> #   carrier <chr>, flight <int>, tailnum <chr>, origin <chr>, dest <chr>,
#> #   air_time <dbl>, distance <dbl>, hour <dbl>, minute <dbl>, time_hour <dttm>

将数据框flights的行按照year,month,day的值升序排序，返回新的数据框。

使用 desc() 可以按列进行降序排序：

arrange(flights,desc(dep_delay))
#> # A tibble: 336,776 x 19
#>    year month   day dep_time sched_dep_time dep_delay arr_time sched_arr_time
#>   <int> <int> <int>    <int>          <int>     <dbl>    <int>          <int>
#> 1  2013     1     9      641            900      1301     1242           1530
#> 2  2013     6    15     1432           1935      1137     1607           2120
#> 3  2013     1    10     1121           1635      1126     1239           1810
#> 4  2013     9    20     1139           1845      1014     1457           2210
#> 5  2013     7    22      845           1600      1005     1044           1815
#> 6  2013     4    10     1100           1900       960     1342           2211
#> # ... with 336,770 more rows, and 11 more variables: arr_delay <dbl>,
#> #   carrier <chr>, flight <int>, tailnum <chr>, origin <chr>, dest <chr>,
#> #   air_time <dbl>, distance <dbl>, hour <dbl>, minute <dbl>, time_hour <dttm>
…
df <- tibble(x = c(5, 2, NA))
arrange(df,desc(is.na(df)))
#> # A tibble: 3 x 1
#>       x
#>   <dbl>
#> 1    NA
#> 2     5
#> 3     2

不知道这算不算一个好的办法。但是要改变非缺失值顺序的同时又把缺失值放在前面，就有点复杂了，需要arrange两次。

(2)对ﬂights排序以找出延误时间最长的航班。找出出发时间最早的航班。

arrange(flights,desc(arr_delay))
#> # A tibble: 336,776 x 19
#>    year month   day dep_time sched_dep_time dep_delay arr_time sched_arr_time
#>   <int> <int> <int>    <int>          <int>     <dbl>    <int>          <int>
#> 1  2013     1     9      641            900      1301     1242           1530
#> 2  2013     6    15     1432           1935      1137     1607           2120
#> 3  2013     1    10     1121           1635      1126     1239           1810
#> 4  2013     9    20     1139           1845      1014     1457           2210
#> 5  2013     7    22      845           1600      1005     1044           1815
#> 6  2013     4    10     1100           1900       960     1342           2211
#> # ... with 336,770 more rows, and 11 more variables: arr_delay <dbl>,
#> #   carrier <chr>, flight <int>, tailnum <chr>, origin <chr>, dest <chr>,
#> #   air_time <dbl>, distance <dbl>, hour <dbl>, minute <dbl>, time_hour <dttm>

arrange(flights,dep_time)
#> # A tibble: 336,776 x 19
#>    year month   day dep_time sched_dep_time dep_delay arr_time sched_arr_time
#>   <int> <int> <int>    <int>          <int>     <dbl>    <int>          <int>
#> 1  2013     1    13        1           2249        72      108           2357
#> 2  2013     1    31        1           2100       181      124           2225
#> 3  2013    11    13        1           2359         2      442            440
#> 4  2013    12    16        1           2359         2      447            437
#> 5  2013    12    20        1           2359         2      430            440
#> 6  2013    12    26        1           2359         2      437            440
#> # ... with 336,770 more rows, and 11 more variables: arr_delay <dbl>,
#> #   carrier <chr>, flight <int>, tailnum <chr>, origin <chr>, dest <chr>,
#> #   air_time <dbl>, distance <dbl>, hour <dbl>, minute <dbl>, time_hour <dttm>

(3)对flights排序以找出速度最快的航班。

需要根据distance（距离）以及air_time（飞行时间）去计算速度，并排序：

arrange(flights,desc(distance/air_time))
#> # A tibble: 336,776 x 19
#>    year month   day dep_time sched_dep_time dep_delay arr_time sched_arr_time
#>   <int> <int> <int>    <int>          <int>     <dbl>    <int>          <int>
#> 1  2013     5    25     1709           1700         9     1923           1937
#> 2  2013     7     2     1558           1513        45     1745           1719
#> 3  2013     5    13     2040           2025        15     2225           2226
#> 4  2013     3    23     1914           1910         4     2045           2043
#> 5  2013     1    12     1559           1600        -1     1849           1917
#> 6  2013    11    17      650            655        -5     1059           1150
#> # ... with 336,770 more rows, and 11 more variables: arr_delay <dbl>,
#> #   carrier <chr>, flight <int>, tailnum <chr>, origin <chr>, dest <chr>,
#> #   air_time <dbl>, distance <dbl>, hour <dbl>, minute <dbl>, time_hour <dttm>

(4)哪个航班的飞行时间最长？哪个最短？

arrange(flights,air_time)
#> # A tibble: 336,776 x 19
#>    year month   day dep_time sched_dep_time dep_delay arr_time sched_arr_time
#>   <int> <int> <int>    <int>          <int>     <dbl>    <int>          <int>
#> 1  2013     1    16     1355           1315        40     1442           1411
#> 2  2013     4    13      537            527        10      622            628
#> 3  2013    12     6      922            851        31     1021            954
#> 4  2013     2     3     2153           2129        24     2247           2224
#> 5  2013     2     5     1303           1315       -12     1342           1411
#> 6  2013     2    12     2123           2130        -7     2211           2225
#> # ... with 336,770 more rows, and 11 more variables: arr_delay <dbl>,
#> #   carrier <chr>, flight <int>, tailnum <chr>, origin <chr>, dest <chr>,
#> #   air_time <dbl>, distance <dbl>, hour <dbl>, minute <dbl>, time_hour <dttm>

arrange(flights,desc(air_time))
#> # A tibble: 336,776 x 19
#>    year month   day dep_time sched_dep_time dep_delay arr_time sched_arr_time
#>   <int> <int> <int>    <int>          <int>     <dbl>    <int>          <int>
#> 1  2013     3    17     1337           1335         2     1937           1836
#> 2  2013     2     6      853            900        -7     1542           1540
#> 3  2013     3    15     1001           1000         1     1551           1530
#> 4  2013     3    17     1006           1000         6     1607           1530
#> 5  2013     3    16     1001           1000         1     1544           1530
#> 6  2013     2     5      900            900         0     1555           1540
#> # ... with 336,770 more rows, and 11 more variables: arr_delay <dbl>,
#> #   carrier <chr>, flight <int>, tailnum <chr>, origin <chr>, dest <chr>,
#> #   air_time <dbl>, distance <dbl>, hour <dbl>, minute <dbl>, time_hour <dttm>
…
5.4.1 练习

(1)从flights数据集中选择dep_time、dep_delay、arr_time和arr_delay，通过头脑风暴找出尽可能多的方法。

select(flights,dep_time,dep_delay,arr_time,arr_delay)  # 原始方法
select(flights,dep_time:arr_delay,-c(sched_dep_time,sched_arr_time))  # 向量方法
select(flights,dep_time:arr_delay,-starts_with("sched"))  # 利用辅助函数匹配需要舍弃的变量名
select(flights,starts_with("dep"),starts_with("arr"))  # 直接匹配变量名
select(flights,matches("^(dep|arr)"))  # 利用正则匹配

(2)如果在select()函数中多次计入一个变量名，那么会发生什么情况？

select(flights,dep_time,dep_time)
#> # A tibble: 336,776 x 1
#>   dep_time
#>      <int>
#> 1      517
#> 2      533
#> 3      542
#> 4      544
#> 5      554
#> 6      554
#> # ... with 336,770 more rows

只会选取一列。这就解释了为什么：

select(flights, time_hour, air_time, everything())
#> # A tibble: 336,776 x 19
#>   time_hour           air_time  year month   day dep_time sched_dep_time
#>   <dttm>                 <dbl> <int> <int> <int>    <int>          <int>
#> 1 2013-01-01 05:00:00      227  2013     1     1      517            515
#> 2 2013-01-01 05:00:00      227  2013     1     1      533            529
#> 3 2013-01-01 05:00:00      160  2013     1     1      542            540
#> 4 2013-01-01 05:00:00      183  2013     1     1      544            545
#> 5 2013-01-01 06:00:00      116  2013     1     1      554            600
#> 6 2013-01-01 05:00:00      150  2013     1     1      554            558
#> # ... with 336,770 more rows, and 12 more variables: dep_delay <dbl>,
#> #   arr_time <int>, sched_arr_time <int>, arr_delay <dbl>, carrier <chr>,
#> #   flight <int>, tailnum <chr>, origin <chr>, dest <chr>, distance <dbl>,
#> #   hour <dbl>, minute <dbl>

会把变量移到前面。

(3)one_of()函数的作用是什么？为什么它结合以下向量使用时非常有用？

vars <- c( 
  "year", "month", "day", "dep_delay", "arr_delay", "hello"
)

select(flights,one_of(vars))
#> Warning: Unknown columns: `hello`
#> # A tibble: 336,776 x 5
#>    year month   day dep_delay arr_delay
#>   <int> <int> <int>     <dbl>     <dbl>
#> 1  2013     1     1         2        11
#> 2  2013     1     1         4        20
#> 3  2013     1     1         2        33
#> 4  2013     1     1        -1       -18
#> 5  2013     1     1        -6       -25
#> 6  2013     1     1        -4        12
#> # ... with 336,770 more rows
…
