20 Many models | r4ds学习笔记
…
            r4ds学习笔记

20 Many models

library(modelr)
library(tidyverse)

20.1 gapminder

对gapminder这个数据表进行分析一下。

# 载入数据包
library(gapminder)
gapminder
#> # A tibble: 1,704 x 6
#>   country     continent  year lifeExp      pop gdpPercap
#>   <fct>       <fct>     <int>   <dbl>    <int>     <dbl>
#> 1 Afghanistan Asia       1952    28.8  8425333      779.
#> 2 Afghanistan Asia       1957    30.3  9240934      821.
#> 3 Afghanistan Asia       1962    32.0 10267083      853.
#> 4 Afghanistan Asia       1967    34.0 11537966      836.
#> 5 Afghanistan Asia       1972    36.1 13079460      740.
#> 6 Afghanistan Asia       1977    38.4 14880372      786.
#> # ... with 1,698 more rows
…
country_model <- function(df) {
  lm(lifeExp ~ year, data = df)
}
by_country <- by_country %>% 
  mutate(model = map(data, country_model))

再对于每个模型添加残差：

by_country <- by_country %>% 
  mutate(
    resids = map2(data, model, add_residuals)
  )
by_country
#> # A tibble: 142 x 5
#> # Groups:   country, continent [142]
#>   country     continent data              model  resids           
#>   <fct>       <fct>     <list>            <list> <list>           
#> 1 Afghanistan Asia      <tibble [12 x 4]> <lm>   <tibble [12 x 5]>
#> 2 Albania     Europe    <tibble [12 x 4]> <lm>   <tibble [12 x 5]>
#> 3 Algeria     Africa    <tibble [12 x 4]> <lm>   <tibble [12 x 5]>
#> 4 Angola      Africa    <tibble [12 x 4]> <lm>   <tibble [12 x 5]>
#> 5 Argentina   Americas  <tibble [12 x 4]> <lm>   <tibble [12 x 5]>
#> 6 Australia   Oceania   <tibble [12 x 4]> <lm>   <tibble [12 x 5]>
#> # ... with 136 more rows

嵌套数据框好处理，但要展示出来还得解除嵌套(unnest)：

resids <- unnest(by_country, resids)
resids
#> # A tibble: 1,704 x 9
#> # Groups:   country, continent [142]
#>   country    continent data        model  year lifeExp     pop gdpPercap   resid
#>   <fct>      <fct>     <list>      <lis> <int>   <dbl>   <int>     <dbl>   <dbl>
#> 1 Afghanist~ Asia      <tibble [1~ <lm>   1952    28.8  8.43e6      779. -1.11  
#> 2 Afghanist~ Asia      <tibble [1~ <lm>   1957    30.3  9.24e6      821. -0.952 
#> 3 Afghanist~ Asia      <tibble [1~ <lm>   1962    32.0  1.03e7      853. -0.664 
#> 4 Afghanist~ Asia      <tibble [1~ <lm>   1967    34.0  1.15e7      836. -0.0172
#> 5 Afghanist~ Asia      <tibble [1~ <lm>   1972    36.1  1.31e7      740.  0.674 
#> 6 Afghanist~ Asia      <tibble [1~ <lm>   1977    38.4  1.49e7      786.  1.65  
#> # ... with 1,698 more rows
…
除了残差，还有很多指标可以衡量模型，可以使用broom::glance()去得到：

glance <- by_country %>% 
  mutate(glance = map(model, broom::glance)) %>% 
  unnest(glance)

一般我们可以通过R平方去衡量模型解释的好坏，通过对R平方排序找出拟合不好的模型：

glance %>% 
  arrange(r.squared)
#> # A tibble: 142 x 17
#> # Groups:   country, continent [142]
#>   country continent data  model resids r.squared adj.r.squared sigma statistic
#>   <fct>   <fct>     <lis> <lis> <list>     <dbl>         <dbl> <dbl>     <dbl>
#> 1 Rwanda  Africa    <tib~ <lm>  <tibb~    0.0172      -0.0811   6.56     0.175
#> 2 Botswa~ Africa    <tib~ <lm>  <tibb~    0.0340      -0.0626   6.11     0.352
#> 3 Zimbab~ Africa    <tib~ <lm>  <tibb~    0.0562      -0.0381   7.21     0.596
#> 4 Zambia  Africa    <tib~ <lm>  <tibb~    0.0598      -0.0342   4.53     0.636
#> 5 Swazil~ Africa    <tib~ <lm>  <tibb~    0.0682      -0.0250   6.64     0.732
#> 6 Lesotho Africa    <tib~ <lm>  <tibb~    0.0849      -0.00666  5.93     0.927
#> # ... with 136 more rows, and 8 more variables: p.value <dbl>, df <dbl>,
#> #   logLik <dbl>, AIC <dbl>, BIC <dbl>, deviance <dbl>, df.residual <int>,
#> #   nobs <int>
…
