10 Relational data | r4ds学习笔记
…
airport_locations <- airports %>%
  select(faa, lat, lon)

flights %>%
  select(year:day, hour, origin, dest) %>%
  left_join(
    airport_locations,
    by = c("origin" = "faa")
  ) %>%
  left_join(
    airport_locations,
    by = c("dest" = "faa")
  )
#> # A tibble: 336,776 x 10
#>    year month   day  hour origin dest  lat.x lon.x lat.y lon.y
#>   <int> <int> <int> <dbl> <chr>  <chr> <dbl> <dbl> <dbl> <dbl>
#> 1  2013     1     1     5 EWR    IAH    40.7 -74.2  30.0 -95.3
#> 2  2013     1     1     5 LGA    IAH    40.8 -73.9  30.0 -95.3
#> 3  2013     1     1     5 JFK    MIA    40.6 -73.8  25.8 -80.3
#> 4  2013     1     1     5 JFK    BQN    40.6 -73.8  NA    NA  
#> 5  2013     1     1     6 LGA    ATL    40.8 -73.9  33.6 -84.4
#> 6  2013     1     1     5 EWR    ORD    40.7 -74.2  42.0 -87.9
#> # ... with 336,770 more rows

为什么是左外连接而不是内连接？先看看内连接：

flights %>%
  select(year:day, hour, origin, dest) %>%
  inner_join(
    airport_locations,
    by = c("origin" = "faa")
  ) %>%
  inner_join(
    airport_locations,
    by = c("dest" = "faa")
  )
#> # A tibble: 329,174 x 10
#>    year month   day  hour origin dest  lat.x lon.x lat.y lon.y
#>   <int> <int> <int> <dbl> <chr>  <chr> <dbl> <dbl> <dbl> <dbl>
#> 1  2013     1     1     5 EWR    IAH    40.7 -74.2  30.0 -95.3
#> 2  2013     1     1     5 LGA    IAH    40.8 -73.9  30.0 -95.3
#> 3  2013     1     1     5 JFK    MIA    40.6 -73.8  25.8 -80.3
#> 4  2013     1     1     6 LGA    ATL    40.8 -73.9  33.6 -84.4
#> 5  2013     1     1     5 EWR    ORD    40.7 -74.2  42.0 -87.9
#> 6  2013     1     1     6 EWR    FLL    40.7 -74.2  26.1 -80.2
#> # ... with 329,168 more rows
…
另一个问题，对于重复的变量lat,lot，连接时会默认添加.x,.y用于区分，可以使用参数suffix来修改。如：

flights %>%
  select(year:day, hour, origin, dest) %>%
  left_join(
    airport_locations,
    by = c("origin" = "faa")
  ) %>%
  left_join(
    airport_locations,
    by = c("dest" = "faa"),
    suffix = c("_origin", "_dest")
  )
#> # A tibble: 336,776 x 10
#>    year month   day  hour origin dest  lat_origin lon_origin lat_dest lon_dest
#>   <int> <int> <int> <dbl> <chr>  <chr>      <dbl>      <dbl>    <dbl>    <dbl>
#> 1  2013     1     1     5 EWR    IAH         40.7      -74.2     30.0    -95.3
#> 2  2013     1     1     5 LGA    IAH         40.8      -73.9     30.0    -95.3
#> 3  2013     1     1     5 JFK    MIA         40.6      -73.8     25.8    -80.3
#> 4  2013     1     1     5 JFK    BQN         40.6      -73.8     NA       NA  
#> 5  2013     1     1     6 LGA    ATL         40.8      -73.9     33.6    -84.4
#> 6  2013     1     1     5 EWR    ORD         40.7      -74.2     42.0    -87.9
#> # ... with 336,770 more rows
